…
``` r
# Remove unconsumed food items
sample_hces <- hcesNutR::remove_unconsumed(sample_hces, consCol = "consYN", consVal = 1)
#> Removing unconsumed food item records...
#> Unconsumed food item records removed succesfully
#> Number of records removed : 12488
#> Number of records remaining : 1712
#> 
#> ...
#> ...

# Preview the results
sample_hces
#> # A tibble: 1,712 × 10
#>    case_id      hhid          item_oth item_code cons_quant cons_unitA cons_unit
#>    <chr>        <chr>         <chr>    <dbl+lbl>      <dbl> <chr>      <dbl+lbl>
#>  1 201011000001 ee2d2915a43d… ""       104 [Mai…        1   59         59 [TABL…
#>  2 201011000001 ee2d2915a43d… ""       208 [Coc…        8   23         23 [OTHE…
#>  3 201011000001 ee2d2915a43d… ""       301 [Bea…        2.5 23         23 [OTHE…
#>  4 201011000001 ee2d2915a43d… ""       307 [Gro…        6   23         23 [OTHE…
#>  5 201011000001 ee2d2915a43d… ""       311 [Gro…        7.5 23         23 [OTHE…
#>  6 201011000001 ee2d2915a43d… ""       403 [Tan…        7.5 23         23 [OTHE…
#>  7 201011000001 ee2d2915a43d… "BIRD"   515 [Oth…        5.5 23         23 [OTHE…
#>  8 201011000001 ee2d2915a43d… ""       602 [Ban…        9   9B          9 [PIEC…
#>  9 201011000001 ee2d2915a43d… ""       604 [Pin…        2.5 23         23 [OTHE…
#> 10 201011000001 ee2d2915a43d… ""       701 [Fre…        3.5 23         23 [OTHE…
#> # ℹ 1,702 more rows
#> # ℹ 3 more variables: cons_unit_oth <chr>, cons_unit_size <dbl+lbl>,
#> #   hh_g03c_1 <dbl+lbl>
…
### Create two columns from each dbl+lbl column

The `create_dta_labels` function creates two columns from each dbl+lbl
(double plus label) column. The first column contains the numeric values
and the second column contains the labels. The function takes in a data
frame and finds all columns that contains the double plus label column.
The function returns a data frame with the new columns.

``` r
# Split dbl+lbl columns
sample_hces <- hcesNutR::create_dta_labels(sample_hces)

# Preview
sample_hces
#> # A tibble: 1,712 × 14
#>    case_id    hhid  item_oth item_code_code item_code_name cons_quant cons_unitA
#>    <chr>      <chr> <chr>             <dbl> <chr>               <dbl> <chr>     
#>  1 201011000… ee2d… ""                  104 Maize grain (…        1   59        
#>  2 201011000… ee2d… ""                  208 Cocoyam (masi…        8   23        
#>  3 201011000… ee2d… ""                  301 Bean, white           2.5 23        
#>  4 201011000… ee2d… ""                  307 Ground bean (…        6   23        
#>  5 201011000… ee2d… ""                  311 Groundnut (Sh…        7.5 23        
#>  6 201011000… ee2d… ""                  403 Tanaposi/Rape         7.5 23        
#>  7 201011000… ee2d… "BIRD"              515 Other (specif…        5.5 23        
#>  8 201011000… ee2d… ""                  602 Banana                9   9B        
#>  9 201011000… ee2d… ""                  604 Pineapple             2.5 23        
#> 10 201011000… ee2d… ""                  701 Fresh milk            3.5 23        
#> # ℹ 1,702 more rows
#> # ℹ 7 more variables: cons_unit_code <dbl>, cons_unit_name <chr>,
#> #   cons_unit_oth <chr>, cons_unit_size_code <dbl>, cons_unit_size_name <chr>,
#> #   hh_g03c_1_code <dbl>, hh_g03c_1_name <chr>
…
Check if the conversion factors file contain all the expected conversion
factors for the hces data being processed.

``` r
# Check conversion factors 
check_conv_fct(hces_df = sample_hces, conv_fct_df = IHS5_conv_fct)
#> There are 1334 out of 1408 have missing conversion factors.
#> This represents 94.74% of the data.
#> Please fix your conversion factors file before trying again.
#> NOTE: Use View() to see the missing conversion factors.
#> # A tibble: 1,334 × 15
#>    case_id    hhid  food_name food_code cons_unit_name cons_unit_code cons_quant
#>    <chr>      <chr> <chr>         <dbl> <chr>          <chr>               <dbl>
#>  1 201011000… e6ff… MAIZE UF…       103 KILOGRAMME     1                     6  
#>  2 201011000… e569… FINGER M…       107 KILOGRAM       23                    2.5
#>  3 201011000… aaf8… SPAGHETT…       114 KILOGRAM       23                    6.5
#>  4 201011000… 032c… BEAN, BR…       302 KILOGRAM       23                    1  
#>  5 201011000… dd9a… FRESH FI…      5031 KILOGRAMME     1                     8.5
#>  6 201011000… 6bb7… TINNED M…       512 KILOGRAMME     1                     0.5
#>  7 201011000… 23d0… FREEZES …       906 KILOGRAMME     1                     5  
#>  8 201011000… e6ff… PEARL MI…       109 HEAP           10                    5  
#>  9 201011000… b52b… BREAD           111 HEAP           10                    7  
#> 10 201011000… 11bd… INFANT F…       116 HEAP           10                    3  
#> # ℹ 1,324 more rows
#> # ℹ 8 more variables: matched_food_name <chr>, matched_food_code <chr>,
#> #   food_match_source <chr>, matched_cons_unit_name <chr>,
#> #   matched_cons_unit_code <chr>, cons_unit_code_source <chr>, region <dbl>,
#> #   measure_id <chr>
```
…
